{"_id":{"$oid":"598d874f3cab8764eca1698f"},"rib":"111111111111","adresse":"LC 2 Ain Diab - Casablanca","tel":"0618537228","type":"Interne","nom":"Wafik mustapha","__v":0}
{"_id":{"$oid":"598d87c33cab8764eca16990"},"rib":"222222222222","adresse":"Casablanca","tel":"0522334455","type":"Externe","nom":"IT KNOWLEDGE","__v":0}
{"_id":{"$oid":"59903ba5eaa43d6e6f7bb26f"},"rib":"000000000000","adresse":"Casablanca","tel":"0522 44 66 78","type":"Externe","nom":"Univers Labo","__v":0,"autreinfo":null}
{"_id":{"$oid":"59a15d96c786e811b1f2d7c6"},"rib":"5555-6666","adresse":"casa","tel":"0522443355","type":"Externe","nom":"toto","__v":0,"autreinfo":null}
{"_id":{"$oid":"59a5520089f2551ddabb206d"},"rib":"","adresse":"","tel":"","type":"Interne","nom":"PERSONNEL INRH","__v":0}
{"_id":{"$oid":"59a5521189f2551ddabb206f"},"rib":"","adresse":"","tel":"","type":"Interne","nom":"PERSONNEL NAVIGANT","__v":0}
{"_id":{"$oid":"59a5523489f2551ddabb2071"},"rib":"1122334455","adresse":"Casablanca","tel":"0522434354","type":"Externe","nom":"AUTO HALL","__v":0}
{"_id":{"$oid":"59a5524f89f2551ddabb2073"},"rib":"","adresse":"","tel":"","type":"Interne","nom":"JAWAD EL ATTAR","__v":0}
