{"_id":{"$oid":"5991ca47f782f73e31c23867"},"code":"21281232","libelle":"FRAIS MEDICAUX ET D'HOSPITALISATION","categorie":"ACHAT NON STOCKES DE MATIERES ET FOURNITURES","type":"EQUIPEMENT","active":true,"budget":0.0,"montantdispo":0.0}
{"_id":{"$oid":"5991ca47f782f73e31c23868"},"code":"21281231","libelle":"ACHAT DE VIVRES","categorie":"ACHAT NON STOCKES DE MATIERES ET FOURNITURES","type":"EQUIPEMENT","active":false,"budget":0.0,"montantdispo":0.0}
{"_id":{"$oid":"5991ca47f782f73e31c23869"},"code":"21281312","libelle":"ELECTRICITE","categorie":"ACHAT NON STOCKES DE MATIERES ET FOURNITURES","type":"EQUIPEMENT","active":true,"budget":0.0,"montantdispo":0.0}
{"_id":{"$oid":"5991ca47f782f73e31c2386a"},"code":"21281321","libelle":"ENTRETIEN ET REPARATION","categorie":"CHARGES EXTERNES","type":"EQUIPEMENT","active":true,"budget":0.0,"montantdispo":0.0}
{"_id":{"$oid":"5991ca47f782f73e31c2386b"},"code":"21281325","libelle":"MOBILIER,MATERIEL DE BUREAU ET MATERIEL INFORMATIQUE","categorie":"MOBILIER ET MATERIEL DE BUREAU ET DE TRANSPORT","type":"EQUIPEMENT","active":true,"budget":0.0,"montantdispo":0.0}
{"_id":{"$oid":"5991ca47f782f73e31c2386c"},"code":"21281326","libelle":"MATERIEL ET OUTILLAGE","categorie":"MOBILIER ET MATERIEL DE BUREAU ET DE TRANSPORT","type":"EQUIPEMENT","active":true,"budget":0.0,"montantdispo":0.0}
{"_id":{"$oid":"5991ca47f782f73e31c2386d"},"code":"21281253","libelle":"PETIT OUTILLAGE ET PETIT EQUIPEMENT \u0026 CONSOMMABLES DE MATIERES ET FOURNITURES","categorie":"ACHAT NON STOCKES DE MATIERES ET FOURNITURES","type":"EQUIPEMENT","active":true,"budget":0.0,"montantdispo":0.0}
{"_id":{"$oid":"5991ca47f782f73e31c2386e"},"code":"21281327","libelle":"MATERIEL DE TRANSPORT","categorie":"MOBILIER ET MATERIEL DE BUREAU ET DE TRANSPORT","type":"EQUIPEMENT","active":true,"budget":0.0,"montantdispo":0.0}
{"_id":{"$oid":"5991ca47f782f73e31c2386f"},"code":"21281331","libelle":"HONORAIRES ET DROIT DE DOUANE","categorie":"AUTRES CHARGES EXTERNES","type":"EQUIPEMENT","active":true,"budget":0.0,"montantdispo":0.0}
{"_id":{"$oid":"5991ca47f782f73e31c23870"},"code":"21281220","libelle":"ACHAT DE LUBRIFIANT","categorie":"ACHAT NON STOCKES DE MATIERES ET FOURNITURES","type":"EQUIPEMENT","active":true,"budget":0.0,"montantdispo":0.0}
{"_id":{"$oid":"5991ca47f782f73e31c23871"},"code":"21281333","libelle":"LOCATION ET CHARGES LOCATIVES","categorie":"AUTRES CHARGES EXTERNES","type":"EQUIPEMENT","active":true,"budget":0.0,"montantdispo":0.0}
{"_id":{"$oid":"5991ca47f782f73e31c23872"},"code":"21281334","libelle":"DOCUMENTATION","categorie":"AUTRES CHARGES EXTERNES","type":"EQUIPEMENT","active":true,"budget":0.0,"montantdispo":0.0}
{"_id":{"$oid":"5991ca47f782f73e31c23873"},"code":"21281332","libelle":"FRAIS DE FAX ET DE TELEPHONE(y compris frais de licences radio)","categorie":"AUTRES CHARGES EXTERNES","type":"EQUIPEMENT","active":true,"budget":0.0,"montantdispo":0.0}
{"_id":{"$oid":"5991ca47f782f73e31c23874"},"code":"21281311","libelle":"EAU POTABLE","categorie":"ACHAT NON STOCKES DE MATIERES ET FOURNITURES","type":"EQUIPEMENT","active":true,"budget":0.0,"montantdispo":0.0}
{"_id":{"$oid":"5991ca47f782f73e31c23875"},"code":"21281335","libelle":"TRANSPORT DE MATERIEL","categorie":"AUTRES CHARGES EXTERNES","type":"EQUIPEMENT","active":true,"budget":0.0,"montantdispo":0.0}
{"_id":{"$oid":"5991ca47f782f73e31c23876"},"code":"21281610","libelle":"SALAIRE ET TRAITEMENT","categorie":"CHARGES DU PERSONNEL","type":"EQUIPEMENT","active":true,"budget":0.0,"montantdispo":0.0}
{"_id":{"$oid":"5991ca47f782f73e31c23877"},"code":"21281644","libelle":"INDEMNITE DE NOURRITURE","categorie":"CHARGES DU PERSONNEL","type":"EQUIPEMENT","active":true,"budget":0.0,"montantdispo":0.0}
{"_id":{"$oid":"5991ca47f782f73e31c23878"},"code":"21281651","libelle":"CNSS","categorie":"CHARGES DU PERSONNEL","type":"EQUIPEMENT","active":true,"budget":0.0,"montantdispo":0.0}
{"_id":{"$oid":"5991ca47f782f73e31c23879"},"code":"21281652","libelle":"ASSURANCE MUTUELLE","categorie":"CHARGES DU PERSONNEL","type":"EQUIPEMENT","active":true,"budget":0.0,"montantdispo":0.0}
{"_id":{"$oid":"5991ca47f782f73e31c2387a"},"code":"21281620","libelle":"HEURES SUPPLEMENTAIRES","categorie":"CHARGES DU PERSONNEL","type":"EQUIPEMENT","active":true,"budget":0.0,"montantdispo":0.0}
{"_id":{"$oid":"5991ca47f782f73e31c2387b"},"code":"21281630","libelle":"PRIMES ANNUELLES","categorie":"CHARGES DU PERSONNEL","type":"EQUIPEMENT","active":true,"budget":0.0,"montantdispo":0.0}
{"_id":{"$oid":"5991ca47f782f73e31c2387c"},"code":"21281210","libelle":"ACHAT DE CARBURANT","categorie":"ACHAT NON STOCKES DE MATIERES ET FOURNITURES","type":"EQUIPEMENT","active":true,"budget":0.0,"montantdispo":0.0}
{"_id":{"$oid":"5991ca47f782f73e31c2387d"},"code":"21281120","libelle":"PIECES MACHINE(Y COMPRIS MOTEUR ET EQUIPEMENT DE NAVIGATION)","categorie":"ACHAT CONSOMMES DE MATIERES ET FOURNITURES","type":"EQUIPEMENT","active":true,"budget":0.0,"montantdispo":0.0}
{"_id":{"$oid":"5991ca47f782f73e31c2387e"},"code":"21281631","libelle":"INDEMNITES  DIVERSES","categorie":"CHARGES DU PERSONNEL","type":"EQUIPEMENT","active":true,"budget":0.0,"montantdispo":0.0}
{"_id":{"$oid":"5991ca47f782f73e31c2387f"},"code":"21281660","libelle":"HABILLEMENT ET LITERIE","categorie":"CHARGES DU PERSONNEL","type":"EQUIPEMENT","active":true,"budget":0.0,"montantdispo":0.0}
{"_id":{"$oid":"5991ca47f782f73e31c23880"},"code":"21281110","libelle":"MATERIEL DE PECHE","categorie":"ACHAT CONSOMMES DE MATIERES ET FOURNITURES","type":"EQUIPEMENT","active":true,"budget":0.0,"montantdispo":0.0}
{"_id":{"$oid":"5991ca47f782f73e31c23881"},"code":"22100200","libelle":"LOCATION DE BARQUES","categorie":"AUTRES DEPENSES D'EQUIPEMENT","type":"EQUIPEMENT","active":true,"budget":0.0,"montantdispo":0.0}
{"_id":{"$oid":"5991ca47f782f73e31c23882"},"code":"22100300","libelle":"ACHAT DE COQUILLAGES","categorie":"AUTRES DEPENSES D'EQUIPEMENT","type":"EQUIPEMENT","active":true,"budget":0.0,"montantdispo":0.0}
{"_id":{"$oid":"5991ca47f782f73e31c23883"},"code":"22100100","libelle":"CARBURANT","categorie":"AUTRES DEPENSES D'EQUIPEMENT","type":"EQUIPEMENT","active":true,"budget":0.0,"montantdispo":0.0}
{"_id":{"$oid":"5991ca47f782f73e31c23884"},"code":"22100400","libelle":"INDEMNITE DE DEPLACEMENT AU MAROC","categorie":"AUTRES DEPENSES D'EQUIPEMENT","type":"EQUIPEMENT","active":true,"budget":0.0,"montantdispo":0.0}
{"_id":{"$oid":"5991ca47f782f73e31c23885"},"code":"22100960","libelle":"LOCATION ET CHARGES LOCATIVES","categorie":"AUTRES DEPENSES D'EQUIPEMENT","type":"EQUIPEMENT","active":true,"budget":0.0,"montantdispo":0.0}
{"_id":{"$oid":"5991ca47f782f73e31c23886"},"code":"22100970","libelle":"PROJET RECIFS ARTIFICIELS","categorie":"AUTRES DEPENSES D'EQUIPEMENT","type":"EQUIPEMENT","active":true,"budget":0.0,"montantdispo":0.0}
{"_id":{"$oid":"5991ca47f782f73e31c23887"},"code":"22100980","libelle":"REHABILITATION DE LAGUNES","categorie":"AUTRES DEPENSES D'EQUIPEMENT","type":"EQUIPEMENT","active":true,"budget":0.0,"montantdispo":0.0}
{"_id":{"$oid":"5991ca47f782f73e31c23888"},"code":"22105104","libelle":"OCCUPATION DU DOMAINE PUBLIC","categorie":"AUTRES DEPENSES D'EQUIPEMENT","type":"EQUIPEMENT","active":true,"budget":0.0,"montantdispo":0.0}
{"_id":{"$oid":"5991ca47f782f73e31c23889"},"code":"22105106","libelle":"EAU","categorie":"AUTRES DEPENSES D'EQUIPEMENT","type":"EQUIPEMENT","active":true,"budget":0.0,"montantdispo":0.0}
{"_id":{"$oid":"5991ca47f782f73e31c2388a"},"code":"22105107","libelle":"ELECTRICITE","categorie":"AUTRES DEPENSES D'EQUIPEMENT","type":"EQUIPEMENT","active":true,"budget":0.0,"montantdispo":0.0}
{"_id":{"$oid":"5991ca47f782f73e31c2388b"},"code":"22105111","libelle":"INDEMNITES DE DEPLACEMENTS AU MAROC","categorie":"AUTRES DEPENSES D'EQUIPEMENT","type":"EQUIPEMENT","active":true,"budget":0.0,"montantdispo":0.0}
{"_id":{"$oid":"5991ca47f782f73e31c2388c"},"code":"23200000","libelle":"CONSTRUCT°BATIM.ADMINISTRATIFS ET TECHNIQUES,AMENAG.AGENC.\u0026ETUDES TECHNIQUES D'ARCHITECTURE","categorie":"LOCATIONS ET CHARGES LOCATIVES","type":"EQUIPEMENT","active":true,"budget":0.0,"montantdispo":0.0}
{"_id":{"$oid":"5991ca47f782f73e31c2388d"},"code":"23210000","libelle":"CONSTRUCTION ET EQUIPEMENT DU LABORATOIRE DE RECHERCHE EN PATHOLOGIE DES ANIMAUX AQUATIQUES","categorie":"LOCATIONS ET CHARGES LOCATIVES","type":"EQUIPEMENT","active":true,"budget":0.0,"montantdispo":0.0}
{"_id":{"$oid":"5991ca47f782f73e31c2388e"},"code":"22100900","libelle":"IMPRESSION","categorie":"AUTRES DEPENSES D'EQUIPEMENT","type":"EQUIPEMENT","active":true,"budget":0.0,"montantdispo":0.0}
{"_id":{"$oid":"5991ca47f782f73e31c2388f"},"code":"22100920","libelle":"ACHAT DE VERRERIE","categorie":"AUTRES DEPENSES D'EQUIPEMENT","type":"EQUIPEMENT","active":true,"budget":0.0,"montantdispo":0.0}
{"_id":{"$oid":"5991ca47f782f73e31c23890"},"code":"23220000","libelle":"MILLENNIUM CHALLENGE ACCOUNT-MAROC, PROJET APP/INRH  Pêche Artisanale ","categorie":"LOCATIONS ET CHARGES LOCATIVES","type":"EQUIPEMENT","active":true,"budget":0.0,"montantdispo":0.0}
{"_id":{"$oid":"5991ca47f782f73e31c23891"},"code":"22100500","libelle":"INDEMNITE DE DEPLACEMENT A L'ETRANGER","categorie":"AUTRES DEPENSES D'EQUIPEMENT","type":"EQUIPEMENT","active":true,"budget":0.0,"montantdispo":0.0}
{"_id":{"$oid":"5991ca47f782f73e31c23892"},"code":"22100910","libelle":"ACHAT DE PRODUITS CHIMIQUES","categorie":"AUTRES DEPENSES D'EQUIPEMENT","type":"EQUIPEMENT","active":true,"budget":0.0,"montantdispo":0.0}
{"_id":{"$oid":"5991ca47f782f73e31c23893"},"code":"22100930","libelle":"AUTRES PRODUITS DE LABORATOIRES","categorie":"AUTRES DEPENSES D'EQUIPEMENT","type":"EQUIPEMENT","active":true,"budget":0.0,"montantdispo":0.0}
{"_id":{"$oid":"5991ca47f782f73e31c23894"},"code":"22100600","libelle":"FRAIS DE TRANSPORT AU MAROC ET A L'ETRANGER","categorie":"AUTRES DEPENSES D'EQUIPEMENT","type":"EQUIPEMENT","active":true,"budget":0.0,"montantdispo":0.0}
{"_id":{"$oid":"5991ca47f782f73e31c23895"},"code":"22100800","libelle":"ACHAT DE PETIT OUTILLAGE ET PETIT EQUIPEMENT","categorie":"AUTRES DEPENSES D'EQUIPEMENT","type":"EQUIPEMENT","active":true,"budget":0.0,"montantdispo":0.0}
{"_id":{"$oid":"5991ca47f782f73e31c23896"},"code":"23320000","libelle":"MATERIEL ET OUTILLAGE","categorie":"LOCATIONS ET CHARGES LOCATIVES","type":"EQUIPEMENT","active":true,"budget":0.0,"montantdispo":0.0}
{"_id":{"$oid":"5991ca47f782f73e31c23897"},"code":"23408000","libelle":"MATERIEL DE TRANSPORT","categorie":"LOCATIONS ET CHARGES LOCATIVES","type":"EQUIPEMENT","active":true,"budget":0.0,"montantdispo":0.0}
{"_id":{"$oid":"5991ca47f782f73e31c23898"},"code":"23510000","libelle":"ACHAT DE MOBILIER DE BUREAU","categorie":"LOCATIONS ET CHARGES LOCATIVES","type":"EQUIPEMENT","active":true,"budget":0.0,"montantdispo":0.0}
{"_id":{"$oid":"5991ca47f782f73e31c23899"},"code":"23550000","libelle":"ACHAT AUTRES MOBILIERS, MATERIEL DE BUREAU","categorie":"LOCATIONS ET CHARGES LOCATIVES","type":"EQUIPEMENT","active":true,"budget":0.0,"montantdispo":0.0}
{"_id":{"$oid":"5991ca47f782f73e31c2389a"},"code":"23520000","libelle":"ACHAT DE MATERIEL DE BUREAU","categorie":"LOCATIONS ET CHARGES LOCATIVES","type":"EQUIPEMENT","active":true,"budget":0.0,"montantdispo":0.0}
{"_id":{"$oid":"5991ca47f782f73e31c2389b"},"code":"24860000","libelle":"DEPOT ET CAUTIONNEMENT VERSES","categorie":"LOCATIONS ET CHARGES LOCATIVES","type":"EQUIPEMENT","active":true,"budget":0.0,"montantdispo":0.0}
{"_id":{"$oid":"5991ca47f782f73e31c2389c"},"code":"23552000","libelle":"ACHAT DE LOGICIELS (Y compris le site web)","categorie":"LOCATIONS ET CHARGES LOCATIVES","type":"EQUIPEMENT","active":true,"budget":0.0,"montantdispo":0.0}
{"_id":{"$oid":"5991ca47f782f73e31c2389d"},"code":"23551000","libelle":"ACHAT DE MATERIEL INFORMATIQUE","categorie":"LOCATIONS ET CHARGES LOCATIVES","type":"EQUIPEMENT","active":true,"budget":0.0,"montantdispo":0.0}
{"_id":{"$oid":"5991ca47f782f73e31c2389e"},"code":"61221200","libelle":"ACHAT DE VERRERIES","categorie":"ACHAT CONSOMMES DE MATIERES ET FOURNITURES","type":"FONCTIONNEMENT","active":true,"budget":0.0,"montantdispo":0.0}
{"_id":{"$oid":"5991ca47f782f73e31c2389f"},"code":"61221800","libelle":"AUTRES PRODUITS DE LABORATOIRE","categorie":"ACHAT CONSOMMES DE MATIERES ET FOURNITURES","type":"FONCTIONNEMENT","active":true,"budget":0.0,"montantdispo":0.0}
{"_id":{"$oid":"5991ca47f782f73e31c238a0"},"code":"61224000","libelle":"ACHAT DE PRODUITS D'ENTRETIEN","categorie":"ACHAT CONSOMMES DE MATIERES ET FOURNITURES","type":"FONCTIONNEMENT","active":true,"budget":0.0,"montantdispo":0.0}
{"_id":{"$oid":"5991ca47f782f73e31c238a1"},"code":"61225000","libelle":"ACHAT DE FOURNITURE INFORMATIQUE","categorie":"ACHAT CONSOMMES DE MATIERES ET FOURNITURES","type":"FONCTIONNEMENT","active":true,"budget":0.0,"montantdispo":0.0}
{"_id":{"$oid":"5991ca47f782f73e31c238a2"},"code":"61253000","libelle":"ACHAT DE PETIT OUTILLAGE ET PETIT EQUIPEMENT","categorie":"ACHAT NON STOCKES DE MATIERES ET FOURNITURES","type":"FONCTIONNEMENT","active":true,"budget":0.0,"montantdispo":0.0}
{"_id":{"$oid":"5991ca47f782f73e31c238a3"},"code":"61263000","libelle":"ACHAT DES PRESTATIONS DE SERVICES","categorie":"ACHAT DE TRAVAUX,ETUDES ET PRESTATION DE SERVICES","type":"FONCTIONNEMENT","active":true,"budget":0.0,"montantdispo":0.0}
{"_id":{"$oid":"5991ca47f782f73e31c238a4"},"code":"61312000","libelle":"LOCATIONS ET CHARGES LOCATIVES","categorie":"CHARGES EXTERNES","type":"FONCTIONNEMENT","active":true,"budget":0.0,"montantdispo":0.0}
{"_id":{"$oid":"5991ca47f782f73e31c238a5"},"code":"61331000","libelle":"ENTRETIEN ET REPARATION DES BIENS IMMOBILIERS","categorie":"CHARGES EXTERNES","type":"FONCTIONNEMENT","active":true,"budget":0.0,"montantdispo":0.0}
{"_id":{"$oid":"5991ca47f782f73e31c238a6"},"code":"61332100","libelle":"ENTRETIEN ET REPARATION DU MOBILIER ET MATERIEL DE BUREAU","categorie":"CHARGES EXTERNES","type":"FONCTIONNEMENT","active":true,"budget":0.0,"montantdispo":0.0}
{"_id":{"$oid":"5991ca47f782f73e31c238a7"},"code":"61332200","libelle":"ENTRETIEN ET REPARATION DU MATERIEL DE TRANSPORT","categorie":"CHARGES EXTERNES","type":"FONCTIONNEMENT","active":true,"budget":0.0,"montantdispo":0.0}
{"_id":{"$oid":"5991ca47f782f73e31c238a8"},"code":"61251200","libelle":"ELECTRICITE","categorie":"ACHAT NON STOCKES DE MATIERES ET FOURNITURES","type":"FONCTIONNEMENT","active":true,"budget":0.0,"montantdispo":0.0}
{"_id":{"$oid":"5991ca47f782f73e31c238a9"},"code":"61332400","libelle":"ENTRETIEN ET REPARATION DU MATERIEL INFORMATIQUE ET LOGICIEL","categorie":"CHARGES EXTERNES","type":"FONCTIONNEMENT","active":true,"budget":0.0,"montantdispo":0.0}
{"_id":{"$oid":"5991ca47f782f73e31c238aa"},"code":"61332300","libelle":"ENTRETIEN ET REPARATION DU MATERIEL ET OUTILLAGE","categorie":"CHARGES EXTERNES","type":"FONCTIONNEMENT","active":true,"budget":0.0,"montantdispo":0.0}
{"_id":{"$oid":"5991ca47f782f73e31c238ab"},"code":"61341000","libelle":"ASSURANCE MULTIRISQUES (CORPS DE PECHE,ZODIACS,VOL,INCENDIE,ISAAF MONDIAL ASSISTANCE...)","categorie":"CHARGES EXTERNES","type":"FONCTIONNEMENT","active":true,"budget":0.0,"montantdispo":0.0}
{"_id":{"$oid":"5991ca47f782f73e31c238ac"},"code":"61227100","libelle":"ACHAT DE FOURNITURE DE BUREAU","categorie":"ACHAT CONSOMMES DE MATIERES ET FOURNITURES","type":"FONCTIONNEMENT","active":true,"budget":0.0,"montantdispo":0.0}
{"_id":{"$oid":"5991ca47f782f73e31c238ad"},"code":"61227200","libelle":"IMPRESSION","categorie":"ACHAT CONSOMMES DE MATIERES ET FOURNITURES","type":"FONCTIONNEMENT","active":true,"budget":0.0,"montantdispo":0.0}
{"_id":{"$oid":"5991ca47f782f73e31c238ae"},"code":"61251100","libelle":"EAU  POTABLE","categorie":"ACHAT NON STOCKES DE MATIERES ET FOURNITURES","type":"FONCTIONNEMENT","active":true,"budget":0.0,"montantdispo":0.0}
{"_id":{"$oid":"5991ca47f782f73e31c238af"},"code":"61345000","libelle":"ASSURANCE MATERIEL DE TRANSPORT","categorie":"CHARGES EXTERNES","type":"FONCTIONNEMENT","active":true,"budget":0.0,"montantdispo":0.0}
{"_id":{"$oid":"5991ca47f782f73e31c238b0"},"code":"61251500","libelle":"CARBURANT","categorie":"ACHAT NON STOCKES DE MATIERES ET FOURNITURES","type":"FONCTIONNEMENT","active":true,"budget":0.0,"montantdispo":0.0}
{"_id":{"$oid":"5991ca47f782f73e31c238b1"},"code":"61251700","libelle":"GROUPE ELECTROGENE","categorie":"ACHAT NON STOCKES DE MATIERES ET FOURNITURES","type":"FONCTIONNEMENT","active":true,"budget":0.0,"montantdispo":0.0}
{"_id":{"$oid":"5991ca47f782f73e31c238b2"},"code":"61251400","libelle":"GAZ","categorie":"ACHAT NON STOCKES DE MATIERES ET FOURNITURES","type":"FONCTIONNEMENT","active":true,"budget":0.0,"montantdispo":0.0}
{"_id":{"$oid":"5991ca47f782f73e31c238b3"},"code":"61352000","libelle":"GARDIENNAGE ET SURVEILLANCE","categorie":"CHARGES EXTERNES","type":"FONCTIONNEMENT","active":true,"budget":0.0,"montantdispo":0.0}
{"_id":{"$oid":"5991ca47f782f73e31c238b4"},"code":"61351000","libelle":"PERSONNEL EXTERIEUR A L'INRH (MANUTENTION.)","categorie":"CHARGES EXTERNES","type":"FONCTIONNEMENT","active":true,"budget":0.0,"montantdispo":0.0}
{"_id":{"$oid":"5991ca47f782f73e31c238b5"},"code":"61415000","libelle":"DOCUMENTATION GENERALE","categorie":"AUTRES CHARGES EXTERNES","type":"FONCTIONNEMENT","active":true,"budget":0.0,"montantdispo":0.0}
{"_id":{"$oid":"5991ca47f782f73e31c238b6"},"code":"61431200","libelle":"INDEMNITE KILOMETRIQUE","categorie":"AUTRES CHARGES EXTERNES","type":"FONCTIONNEMENT","active":true,"budget":0.0,"montantdispo":0.0}
{"_id":{"$oid":"5991ca47f782f73e31c238b7"},"code":"61431100","libelle":"FRAIS DE TRANSPORT AU MAROC","categorie":"AUTRES CHARGES EXTERNES","type":"FONCTIONNEMENT","active":true,"budget":0.0,"montantdispo":0.0}
{"_id":{"$oid":"5991ca47f782f73e31c238b8"},"code":"61365200","libelle":"HONORAIRES ET DEPLACEMENT DES EXPERTS ET CONSULTANTS NATIONAUX ET ETRANGERS","categorie":"CHARGES EXTERNES","type":"FONCTIONNEMENT","active":true,"budget":0.0,"montantdispo":0.0}
{"_id":{"$oid":"5991ca47f782f73e31c238b9"},"code":"61420000","libelle":"TRANSPORT DU PERSONNEL, MATERIEL ET DE MESSAGERIE","categorie":"AUTRES CHARGES EXTERNES","type":"FONCTIONNEMENT","active":true,"budget":0.0,"montantdispo":0.0}
{"_id":{"$oid":"5991ca47f782f73e31c238ba"},"code":"61431300","libelle":"FRAIS DE TRANSPORT A L'ETRANGER","categorie":"AUTRES CHARGES EXTERNES","type":"FONCTIONNEMENT","active":true,"budget":0.0,"montantdispo":0.0}
{"_id":{"$oid":"5991ca47f782f73e31c238bb"},"code":"61435200","libelle":"INDEMNITE DE DEPLACEMENT A L'ETRANGER","categorie":"AUTRES CHARGES EXTERNES","type":"FONCTIONNEMENT","active":true,"budget":0.0,"montantdispo":0.0}
{"_id":{"$oid":"5991ca47f782f73e31c238bc"},"code":"61435100","libelle":"INDEMNITE DE DEPLACEMENT AU MAROC","categorie":"AUTRES CHARGES EXTERNES","type":"FONCTIONNEMENT","active":true,"budget":0.0,"montantdispo":0.0}
{"_id":{"$oid":"5991ca47f782f73e31c238bd"},"code":"61436100","libelle":"RECEPTIONS, FRAIS D'INAUGURATION ET CEREMONIES OFFICIELLES","categorie":"AUTRES CHARGES EXTERNES","type":"FONCTIONNEMENT","active":true,"budget":0.0,"montantdispo":0.0}
{"_id":{"$oid":"5991ca47f782f73e31c238be"},"code":"61441000","libelle":"ANNONCES ET INSERTIONS","categorie":"AUTRES CHARGES EXTERNES","type":"FONCTIONNEMENT","active":true,"budget":0.0,"montantdispo":0.0}
{"_id":{"$oid":"5991ca47f782f73e31c238bf"},"code":"61436200","libelle":"STAGES ET SEMINAIRES","categorie":"AUTRES CHARGES EXTERNES","type":"FONCTIONNEMENT","active":true,"budget":0.0,"montantdispo":0.0}
{"_id":{"$oid":"5991ca47f782f73e31c238c0"},"code":"61443000","libelle":"FOIRES.EXPOSITIONS ET CONFERENCES","categorie":"AUTRES CHARGES EXTERNES","type":"FONCTIONNEMENT","active":true,"budget":0.0,"montantdispo":0.0}
{"_id":{"$oid":"5991ca47f782f73e31c238c1"},"code":"61448000","libelle":"AUTRES CHARGES DE PUBL/RELAT.PUBLIQUES","categorie":"AUTRES CHARGES EXTERNES","type":"FONCTIONNEMENT","active":true,"budget":0.0,"montantdispo":0.0}
{"_id":{"$oid":"5991ca47f782f73e31c238c2"},"code":"61455100","libelle":"FRAIS DE FAX ET DE TELEPHONE","categorie":"AUTRES CHARGES EXTERNES","type":"FONCTIONNEMENT","active":true,"budget":0.0,"montantdispo":0.0}
{"_id":{"$oid":"5991ca47f782f73e31c238c3"},"code":"61451000","libelle":"FRAIS POSTAUX","categorie":"AUTRES CHARGES EXTERNES","type":"FONCTIONNEMENT","active":true,"budget":0.0,"montantdispo":0.0}
{"_id":{"$oid":"5991ca47f782f73e31c238c4"},"code":"61456000","libelle":"FRAIS DE TELEX ET DE TELEGRAMMES","categorie":"AUTRES CHARGES EXTERNES","type":"FONCTIONNEMENT","active":true,"budget":0.0,"montantdispo":0.0}
{"_id":{"$oid":"5991ca47f782f73e31c238c5"},"code":"61458000","libelle":"AUTRES FRAIS POSTAUX \u0026 FRAIS TELECOMMUNICATIONS","categorie":"AUTRES CHARGES EXTERNES","type":"FONCTIONNEMENT","active":true,"budget":0.0,"montantdispo":0.0}
{"_id":{"$oid":"5991ca47f782f73e31c238c6"},"code":"61442000","libelle":"ECHANTILLONS CATALOGUES ET IMPRIMES PUBLICITAIRES","categorie":"AUTRES CHARGES EXTERNES","type":"FONCTIONNEMENT","active":true,"budget":0.0,"montantdispo":0.0}
{"_id":{"$oid":"5991ca47f782f73e31c238c7"},"code":"61460000","libelle":"COTISATIONS ET DONS","categorie":"AUTRES CHARGES EXTERNES","type":"FONCTIONNEMENT","active":true,"budget":0.0,"montantdispo":0.0}
{"_id":{"$oid":"5991ca47f782f73e31c238c8"},"code":"61651000","libelle":"DROIT DE DOUANE","categorie":"IMPOTS ET TAXES","type":"FONCTIONNEMENT","active":true,"budget":0.0,"montantdispo":0.0}
{"_id":{"$oid":"5991ca47f782f73e31c238c9"},"code":"61658000","libelle":"IMPÔTS ET TAXES ( Y compris pénalités et majorations de retard )","categorie":"IMPOTS ET TAXES","type":"FONCTIONNEMENT","active":true,"budget":0.0,"montantdispo":0.0}
{"_id":{"$oid":"5991ca47f782f73e31c238ca"},"code":"61671000","libelle":"DROIT D'ENREGISTREMENT ET DE TIMBRE","categorie":"IMPOTS ET TAXES","type":"FONCTIONNEMENT","active":true,"budget":0.0,"montantdispo":0.0}
{"_id":{"$oid":"5991ca47f782f73e31c238cb"},"code":"61673000","libelle":"TAXE SUR LES VEHICULES","categorie":"IMPOTS ET TAXES","type":"FONCTIONNEMENT","active":true,"budget":0.0,"montantdispo":0.0}
{"_id":{"$oid":"5991ca47f782f73e31c238cc"},"code":"61711100","libelle":"TRAITEMENT ET SALAIRE (Titulaires \u0026 Contractuels)","categorie":"CHARGES DE PERSONNEL","type":"FONCTIONNEMENT","active":true,"budget":0.0,"montantdispo":0.0}
{"_id":{"$oid":"5991ca47f782f73e31c238cd"},"code":"61711300","libelle":"REMUNERATION  DU PERSONNEL OCCASIONNEL","categorie":"CHARGES DE PERSONNEL","type":"FONCTIONNEMENT","active":true,"budget":0.0,"montantdispo":0.0}
{"_id":{"$oid":"5991ca47f782f73e31c238ce"},"code":"61711400","libelle":"INDEMNITE POUR HEURES SUPPLEMENTAIRES","categorie":"CHARGES DE PERSONNEL","type":"FONCTIONNEMENT","active":true,"budget":0.0,"montantdispo":0.0}
{"_id":{"$oid":"5991ca47f782f73e31c238cf"},"code":"61713100","libelle":"INDEMNITE DE LOGEMENT","categorie":"CHARGES DE PERSONNEL","type":"FONCTIONNEMENT","active":true,"budget":0.0,"montantdispo":0.0}
{"_id":{"$oid":"5991ca47f782f73e31c238d0"},"code":"61713200","libelle":"INDEMNTE DE TRANSPORT","categorie":"CHARGES DE PERSONNEL","type":"FONCTIONNEMENT","active":true,"budget":0.0,"montantdispo":0.0}
{"_id":{"$oid":"5991ca47f782f73e31c238d1"},"code":"61713300","libelle":"INDEMNITE FORFAITAIRE POUR L'UTILISATION  DU VEHICULE","categorie":"CHARGES DE PERSONNEL","type":"FONCTIONNEMENT","active":true,"budget":0.0,"montantdispo":0.0}
{"_id":{"$oid":"5991ca47f782f73e31c238d2"},"code":"61712000","libelle":"PRIMES ET GRATIFICATIONS","categorie":"CHARGES DE PERSONNEL","type":"FONCTIONNEMENT","active":true,"budget":0.0,"montantdispo":0.0}
{"_id":{"$oid":"5991ca47f782f73e31c238d3"},"code":"61713400","libelle":"INDEMNITE DE RESPONSABILITE","categorie":"CHARGES DE PERSONNEL","type":"FONCTIONNEMENT","active":true,"budget":0.0,"montantdispo":0.0}
{"_id":{"$oid":"5991ca47f782f73e31c238d4"},"code":"61713600","libelle":"INDEMNITE POUR DEPART VOLONTAIRE A LA RETRAITE (P.M)","categorie":"CHARGES DE PERSONNEL","type":"FONCTIONNEMENT","active":true,"budget":0.0,"montantdispo":0.0}
{"_id":{"$oid":"5991ca47f782f73e31c238d5"},"code":"61713700","libelle":"INDEMNITES DIVERSES","categorie":"CHARGES DE PERSONNEL","type":"FONCTIONNEMENT","active":true,"budget":0.0,"montantdispo":0.0}
{"_id":{"$oid":"5991ca47f782f73e31c238d6"},"code":"61741000","libelle":"CNSS","categorie":"CHARGES SOCIALES","type":"FONCTIONNEMENT","active":true,"budget":0.0,"montantdispo":0.0}
{"_id":{"$oid":"5991ca47f782f73e31c238d7"},"code":"61742100","libelle":"REGIME COLLECTIF DES ALLOCATIONS DE RETRAITE (RCAR-CMR)","categorie":"CHARGES SOCIALES","type":"FONCTIONNEMENT","active":true,"budget":0.0,"montantdispo":0.0}
{"_id":{"$oid":"5991ca47f782f73e31c238d8"},"code":"61743000","libelle":"COTISATIONS AUX MUTUELLES","categorie":"CHARGES SOCIALES","type":"FONCTIONNEMENT","active":true,"budget":0.0,"montantdispo":0.0}
{"_id":{"$oid":"5991ca47f782f73e31c238d9"},"code":"61744000","libelle":"PRESTATIONS FAMILIALES","categorie":"CHARGES SOCIALES","type":"FONCTIONNEMENT","active":true,"budget":0.0,"montantdispo":0.0}
{"_id":{"$oid":"5991ca47f782f73e31c238da"},"code":"61763000","libelle":"ŒUVRES SOCIALES","categorie":"CHARGES SOCIALES DIVERSES","type":"FONCTIONNEMENT","active":true,"budget":0.0,"montantdispo":0.0}
{"_id":{"$oid":"5991ca47f782f73e31c238db"},"code":"61745000","libelle":"ASSURANCE ACCIDENT DE TRAVAIL","categorie":"CHARGES SOCIALES","type":"FONCTIONNEMENT","active":true,"budget":0.0,"montantdispo":0.0}
{"_id":{"$oid":"5991ca47f782f73e31c238dc"},"code":"61764000","libelle":"HABILLEMENTS ET VETEMENTS DE TRAVAIL","categorie":"CHARGES SOCIALES DIVERSES","type":"FONCTIONNEMENT","active":true,"budget":0.0,"montantdispo":0.0}
{"_id":{"$oid":"5991ca47f782f73e31c238dd"},"code":"61766000","libelle":"MEDECINE DU TRAVAIL ET PRODUITS PHARMACEUTIQUES","categorie":"CHARGES SOCIALES DIVERSES","type":"FONCTIONNEMENT","active":true,"budget":0.0,"montantdispo":0.0}
{"_id":{"$oid":"5991ca47f782f73e31c238de"},"code":"61767000","libelle":"FORMATION","categorie":"CHARGES SOCIALES DIVERSES","type":"FONCTIONNEMENT","active":true,"budget":0.0,"montantdispo":0.0}
{"_id":{"$oid":"5991ca47f782f73e31c238df"},"code":"65830000","libelle":"PENALITE ET AMENDE FISCALE,SOCIALE  OU PENALE","categorie":"PENALITE ET AMENDE FISCALE,SOCIALE  OU PENALE","type":"FONCTIONNEMENT","active":true,"budget":0.0,"montantdispo":0.0}
{"_id":{"$oid":"5994302cb9f8e982859a43d0"},"categorie":"eeeeee","type":"EQUIPEMENT","libelle":"toto","code":"51281232","active":true,"montantdispo":0,"budget":0,"__v":0}
