code;libelle
DG;DIRECTION GENERALE
CS;Comité Scientifique 
SC;Service Communication  
SQ;Service Qualité 
BOC;Bureau d'Ordre Central
SG;SECRETARIAT GENERAL
DACG;DIVISION AUDIT & CONTRÔLE DE GESTION 
DACG-SAI;Service Audit Intrene
DACG-CG;Service Contrôle de Gestion 
CISD;CENTRE DES SYSTEMES D'INFORMATION ET DE DOCUMENTATION
CISD-SSID;Service des Systèmes d’Information et de documentation 
CISD-SI;Service informatique 
CISD-CS;Cellule Statistique
SSPS;SERVICE DE SUIVI DES PRESTATIONS DE SERVICE
PI;Paierie INRH
DP;DEPTEMENT PECHE 
DP-UODH;URD « OBSERVATION DIRECTE HALIEUTIQUE »
DP-UODH-LPD;Laboratoire Prospections Démersales 
DP-UODH-LPRL;Laboratoire Prospections Ressources Littorales 
DP-UBM;URD « BIOLOGIE MARINE »
DP-UBM-LBE;Laboratoire Biologie  Ecologie 
DP-UBM-LBE-SEC;Station d'échantillonnage de Casablanca
DP-UBM-LBE-SEE;Station d'El jadida
DP-UBM-LBE-SEE;Station d’Echantillonnage de Safi
DP-UBM-LGPH;Laboratoire de Génétique des Populations Halieutiques
DP-UEGP;URD « EXPLOITATION ET GESTION DES PECHES »
DP-UEGP-LESP;Laboratoire d'Evaluation et de Suivi des Pecheries 
DO;DEPARTEMENT OCEANOGRAPHIE 
DO-UOO;URD OCEANOGRAPHIE OPERATIONNELLE
DO-UOO-LPBGM;Laboratoire de Physique et Bio-Géochimie Marine 
DO-UOO-LEPM;Laboratoire d'Ecologie du Plancton Marin 
DSMM;DEPT  SURVEILLANCE DU MILIEU MARIN
DSMM-UCC;URD  CONTAMINANTS  CHIMIQUES
DSMM-UCC-LCCM;Laboratoire des Contaminants Chinmiques et Minéraux
DSMM-UCC-LE;Laboratoire d'Ecotoxicologie 
DSMM-UCC-LCOPH;Laboratoire des Contaminants Organiques , Pesticides et Hydrocarbures 
DSMM-UCB;URD CONTAMINANTS BIOLOGIQUES
DSMM-UCB-LPEN;Laboratoire du Phytoplancton et des Efflorescences Nuisibles
DSMM-UCB-LBM;Laboratoire Biotoxines Marines
DSMM LSSMM ;Station de Surveillance  et de Suivi du Milieu Marin 
DA;DEPARTEMENT AQUACULTURE 
DAR;DEPTEMENT D’APPUI A LA RECHERCHE
DAR-SJ;Service Juridique
DAR-DAL;DIVISION APPROVISIONNEMENT ET LOGISTIQUE
DAR-DAL-SAGS;Service des Achats et Gestion du stock
DAR-DAL-SLM;Service Logistique et Maintenance
DAR-DFRH;DIVISION FINANCES ET RESSOURCES HUMAINES
DAR-DFRH-SF;Service Financier
DAR-DFRH-SC;Service Comptabilité
DAR-DFRH-SRH;Service Ressources Humaines 
DAR-DGMN;DIVISION GESTION DES MOYENS DE NAVIGATION 
DAR-DGMN-SE;Service d'Exploitation
DAR-DGMN-SENST;Service d'Equipements des Navires et Suivi Techniques 
DAR-DGMN- CID;NR.Charif El Idrissi
DAR-DGMN- AMA;NR.Al Amir My Abdallah
DAR-DGMN- HA;NR.Hassani
CRN;CENTRE NADOR
CRN-LSSMM;Laboratoire Surveillance et  Suivi du Milieu Marin 
CRN-LP;Laboratoire Pêche
CRN-LP-SEAL;Station d'échantillonnage AL Hoceima
CRN-SAR;Service Appui à la Recherche  
CRN-P;Paierie 
CRT;CENTRE TANGER
CRT-LSSMM;Laboratoire Surveillance et  Suivi du Milieu Marin 
CRT-LSSMM-SM;Station M'diq 
CRT-LP;Laboratoire Pêche
CRT-LP-SEL;Station d’Echantillonnage de Larache
CRT-LMOE;Laboratoire de Modélisation océanographique et écosystémique 
CRT-SAR;Service Appui à la Recherche  
CRT-P;Paierie 
CRC;CENTRE CASABLANCA
CRA;CENTRE AGADIR
CRA-LSSL;Laboratoire Surveillance et  Suivi du Milieu Marin 
CRA-LP;Laboratoire Pêche
CRA-LP-SEA;Station d'échantillonnage Agadir
CRA-LP-SEES;Station d'échantillonnage d'Essaouira
CRA-LPN;Laboratoire de Physiologie et de Nutrition 
CRA-LPA;Laboratoire de Prospection Acoustiques 
CRA-LEP;Laboratoire Economie des Pêches 
CRA-SAR;Service Appui à la Recherche  
CRA-P;Paierie 
CRL;CENTRE LAAYOUNE
CRL-LSSMM;Laboratoire Surveillance et  Suivi du Milieu Marin 
CRL-LP;Laboratoire Pêche
CRL-LP-SETAN;Station d’Echantillonnage de TAN TAN
CRL-LP-SETAR;Station d’Echantillonnage de TÂRFAYA
CRL-LP-SELA;Station d’Echantillonnage de LAAYOUNE
CRL-SAR;Service Appui à la Recherche  
CRL-P;Paierie 
CRD;CENTRE DAKHLA
CRD-LSSMM;Laboratoire Surveillance et  Suivi du Milieu Marin 
CRD-LP;Laboratoire Pêche
CRD-SAD;Station Aquacole de Dakhla 
CDR-SAR;Service Appui à la Recherche  
CRD-P; Paierie 
CSZIAMM;CENTRE SPECIALISE EN ZOOTECHNIE ET INGENIERIE AQUACOLES MARINES A M’DIQ
CSZIAMM-SPM;Station Piscicole M'diq 
CSZIAMM-LTA;Laboratoire des Technologies Aquacoles
CSZIAMM-SCA;Station Conchilycole d'AMSA
CSZIAMM-SAR;Service Appui à la Recherche  
CSZIAMM-P; Paierie 
CSVTPM;CENTRE SPECIALISE EN VALORISATION ET TECHNOLOGIE DES PRODUITS DE LA MER A AGADIR
CSVTPM-PB;Laboratoire Biotechnologies
CSVTPM-PCQ;Laboratoire Contrôle Qualité 
CSVTPM-PMR;Laboratoire Génie Alimentaire
CSVTPM-CA;Cellule Administrative et Paierie 
CSPAAT;CENTRE SPECIALISE EN PATHOLOGIE DES ANIMAUX AQUATIQUES A TANGER 
CSPAAT-LM;Laboratoire Microbilogie 
CSPAAT-LH;Laboratoire Histopathologie 