code;libelle;categorie;typerubrique
61221200;ACHAT DE VERRERIES; ACHAT CONSOMMES DE MATIERES ET FOURNITURES;FONCTIONNEMENT
61221800;AUTRES PRODUITS DE LABORATOIRE ; ACHAT CONSOMMES DE MATIERES ET FOURNITURES;FONCTIONNEMENT
61224000;ACHAT DE PRODUITS D'ENTRETIEN; ACHAT CONSOMMES DE MATIERES ET FOURNITURES;FONCTIONNEMENT
61225000;ACHAT DE FOURNITURE INFORMATIQUE; ACHAT CONSOMMES DE MATIERES ET FOURNITURES;FONCTIONNEMENT
61227100;ACHAT DE FOURNITURE DE BUREAU; ACHAT CONSOMMES DE MATIERES ET FOURNITURES;FONCTIONNEMENT
61227200;IMPRESSION; ACHAT CONSOMMES DE MATIERES ET FOURNITURES;FONCTIONNEMENT
61251100;EAU  POTABLE; ACHAT  NON STOCKES DE MATIERES ET FOURNITURES;FONCTIONNEMENT
61251200;ELECTRICITE; ACHAT  NON STOCKES DE MATIERES ET FOURNITURES;FONCTIONNEMENT
61251400;GAZ; ACHAT  NON STOCKES DE MATIERES ET FOURNITURES;FONCTIONNEMENT
61251500;CARBURANT & LUBRIFIANT; ACHAT  NON STOCKES DE MATIERES ET FOURNITURES;FONCTIONNEMENT
61251700;GROUPE ELECTROGENE; ACHAT  NON STOCKES DE MATIERES ET FOURNITURES;FONCTIONNEMENT
61253000;ACHAT DE PETIT OUTILLAGE ET PETIT EQUIPEMENT; ACHAT  NON STOCKES DE MATIERES ET FOURNITURES;FONCTIONNEMENT
61263000;ACHAT DES PRESTATIONS DE SERVICES; ACHAT DE TRAVAUX,ETUDES ET PRESTATION DE SERVICES;FONCTIONNEMENT
61312000;LOCATIONS ET CHARGES LOCATIVES; CHARGES EXTERNES;FONCTIONNEMENT
61331000;ENTRETIEN ET REPARATION DES BIENS IMMOBILIERS; CHARGES EXTERNES;FONCTIONNEMENT
61332100;ENTRETIEN ET REPARATION DU MOBILIER ET MATERIEL DE BUREAU; CHARGES EXTERNES;FONCTIONNEMENT
61332200;ENTRETIEN ET REPARATION DU MATERIEL DE TRANSPORT; CHARGES EXTERNES;FONCTIONNEMENT
61332300;ENTRETIEN ET REPARATION DU MATERIEL ET OUTILLAGE; CHARGES EXTERNES;FONCTIONNEMENT
61332400;ENTRETIEN ET REPARATION DU MATERIEL INFORMATIQUE ET LOGICIEL; CHARGES EXTERNES;FONCTIONNEMENT
61345000;ASSURANCE MATERIEL DE TRANSPORT; CHARGES EXTERNES;FONCTIONNEMENT
61351000;PERSONNEL EXTERIEUR A L'INRH (MANUTENTION.); CHARGES EXTERNES;FONCTIONNEMENT
61352000;GARDIENNAGE ET SURVEILLANCE; CHARGES EXTERNES;FONCTIONNEMENT
61365200;HONORAIRES ET DEPLACEMENT DES EXPERTS ET CONSULTANTS NATIONAUX ET ETRANGERS; CHARGES EXTERNES;FONCTIONNEMENT
61367000;FRAIS  D'ACTES ET DE CONTENTIEUX Y COMPRIS JUGEMENTS 2017; CHARGES EXTERNES;FONCTIONNEMENT
61415000;DOCUMENTATION GENERALE;AUTRES CHARGES EXTERNES;FONCTIONNEMENT
61420000;TRANSPORT DU PERSONNEL, MATERIEL ET DE MESSAGERIE;AUTRES CHARGES EXTERNES;FONCTIONNEMENT
61431100;FRAIS DE TRANSPORT AU MAROC;AUTRES CHARGES EXTERNES;FONCTIONNEMENT
61431200;INDEMNITE KILOMETRIQUE;AUTRES CHARGES EXTERNES;FONCTIONNEMENT
61431300;FRAIS DE TRANSPORT A L'ETRANGER;AUTRES CHARGES EXTERNES;FONCTIONNEMENT
61435100;INDEMNITE DE DEPLACEMENT AU MAROC;AUTRES CHARGES EXTERNES;FONCTIONNEMENT
61435200;INDEMNITE DE DEPLACEMENT A L'ETRANGER;AUTRES CHARGES EXTERNES;FONCTIONNEMENT
61436100;RECEPTIONS, FRAIS D'INAUGURATION ET CEREMONIES OFFICIELLES;AUTRES CHARGES EXTERNES;FONCTIONNEMENT
61436200;STAGES ET SEMINAIRES;AUTRES CHARGES EXTERNES;FONCTIONNEMENT
61441000;ANNONCES ET INSERTIONS;AUTRES CHARGES EXTERNES;FONCTIONNEMENT
61442000;ECHANTILLONS CATALOGUES ET IMPRIMES PUBLICITAIRES;AUTRES CHARGES EXTERNES;FONCTIONNEMENT
61443000;FOIRES.EXPOSITIONS ET CONFERENCES (Conception et Aménagement de Stand);AUTRES CHARGES EXTERNES;FONCTIONNEMENT
61448000;AUTRES CHARGES DE PUBL/RELAT.PUBLIQUES;AUTRES CHARGES EXTERNES;FONCTIONNEMENT
61451000;FRAIS POSTAUX;AUTRES CHARGES EXTERNES;FONCTIONNEMENT
61455100;FRAIS DE FAX ET DE TELEPHONE;AUTRES CHARGES EXTERNES;FONCTIONNEMENT
61456000;FRAIS DE TELEX ET DE TELEGRAMMES;AUTRES CHARGES EXTERNES;FONCTIONNEMENT
61458000;AUTRES FRAIS POSTAUX & FRAIS TELECOMMUNICATIONS;AUTRES CHARGES EXTERNES;FONCTIONNEMENT
61460000;COTISATIONS ET DONS AUX ASSOCIATIONS;AUTRES CHARGES EXTERNES;FONCTIONNEMENT
61651000;DROIT DE DOUANE; IMPOTS ET TAXES;FONCTIONNEMENT
61658000;IMPÔTS ET TAXES ( Y compris pénalités et majorations de retard ); IMPOTS ET TAXES;FONCTIONNEMENT
61671000;DROIT D'ENREGISTREMENT ET DE TIMBRE; IMPOTS ET TAXES;FONCTIONNEMENT
61673000;TAXE SUR LES VEHICULES; IMPOTS ET TAXES;FONCTIONNEMENT
61711100;TRAITEMENT ET SALAIRE (Titulaires & Contractuels)(Y COMPRIS AVANCEMENT ET RELASSEMENT EXERCICES ANTERIEURES); CHARGES DE PERSONNEL;FONCTIONNEMENT
61711400;INDEMNITE POUR HEURES SUPPLEMENTAIRES ; CHARGES DE PERSONNEL;FONCTIONNEMENT
61712000;PRIMES DE GRATIFICATION   ET PRIMES DE RECETTES Y compris exercices antérieures       ; CHARGES DE PERSONNEL;FONCTIONNEMENT
61713100;INDEMNITE DE LOGEMENT (Y COMPRIS AVANCEMENT ET RELASSEMENT EXERCICES ANTERIEURES; CHARGES DE PERSONNEL;FONCTIONNEMENT
61713200;INDEMNTE DE TRANSPORT ; CHARGES DE PERSONNEL;FONCTIONNEMENT
61713300;INDEMNITE FORFAITAIRE POUR L'UTILISATION  DU VEHICULE; CHARGES DE PERSONNEL;FONCTIONNEMENT
61713400;INDEMNITE DE RESPONSABILITE ; CHARGES DE PERSONNEL;FONCTIONNEMENT
61713700;INDEMNITES DIVERSES (Y COMPRIS AVANCEMENT ET RELASSEMENT EXERCICES ANTERIEURES; CHARGES DE PERSONNEL;FONCTIONNEMENT
61742100;"REGIME COLLECTIF DES ALLOCATIONS DE RETRAITE (RCAR;CMR;…) (Y COMPRIS AVANCEMENT ET RELASSEMENT EXERCICES ANTERIEURES)"; CHARGES SOCIALES;FONCTIONNEMENT
61743000;COTISATIONS AUX MUTUELLES (Y COMPRIS AVANCEMENT ET RELASSEMENT EXERCICES ANTERIEURES); CHARGES SOCIALES;FONCTIONNEMENT
61744000;PRESTATIONS FAMILIALES; CHARGES SOCIALES;FONCTIONNEMENT
61745000;ASSURANCE ACCIDENT DE TRAVAIL; CHARGES SOCIALES;FONCTIONNEMENT
61763000;ŒUVRES SOCIALES; CHARGES SOCIALES DIVERSES;FONCTIONNEMENT
61764000;HABILLEMENTS ET VETEMENTS DE TRAVAIL; CHARGES SOCIALES DIVERSES;FONCTIONNEMENT
61766000;MEDECINE DU TRAVAIL ET PRODUITS PHARMACEUTIQUES; CHARGES SOCIALES DIVERSES;FONCTIONNEMENT
61767000;FORMATION; CHARGES SOCIALES DIVERSES;FONCTIONNEMENT
65830000;PENALITE ET AMENDE FISCALE,SOCIALE  OU PENALE; PENALITE ET AMENDE FISCALE,SOCIALE  OU PENALE;FONCTIONNEMENT
21281110;MATERIEL DE PECHE; ACHAT CONSOMMES DE MATIERES ET FOURNITURES;EQUIPEMENT
21281111;EXPERIMENTATION D'UN PROTOTYPE DE SENNE TOURNANTE; ACHAT CONSOMMES DE MATIERES ET FOURNITURES;EQUIPEMENT
21281120;PIECES MACHINE(Y COMPRIS MOTEUR ET EQUIPEMENT DE NAVIGATION); ACHAT CONSOMMES DE MATIERES ET FOURNITURES;EQUIPEMENT
21281210;ACHAT DE CARBURANT; ACHAT NON STOCKES DE MATIRES ET FOURNITURES;EQUIPEMENT
21281220;ACHAT DE LUBRIFIANT; ACHAT NON STOCKES DE MATIRES ET FOURNITURES;EQUIPEMENT
21281231;ACHAT DE VIVRE; ACHAT NON STOCKES DE MATIRES ET FOURNITURES;EQUIPEMENT
21281232;FRAIS MEDICAUX; ACHAT NON STOCKES DE MATIRES ET FOURNITURES;EQUIPEMENT
21281253;PETIT OUTILLAGE ET PETIT EQUIPEMENT ET CONS,INFORMATIQUE; ACHAT NON STOCKES DE MATIRES ET FOURNITURES;EQUIPEMENT
21281311;EAU POTABLE ; ACHAT NON STOCKES DE MATIRES ET FOURNITURES;EQUIPEMENT
21281312;ELECTRICITE; ACHAT NON STOCKES DE MATIRES ET FOURNITURES;EQUIPEMENT
21281321;ENTRETIEN ET REPARATION; CHARGES EXTERNES;EQUIPEMENT
21281325;MOBILIER, MATERIEL DE BUREAU ET MATERIEL INFORMATIQUE; MOBILIER ET MATERIEL DE BUREAU ET DE TRANSPORT;EQUIPEMENT
21281326;MATERIEL ET OUTILLAGE; MOBILIER ET MATERIEL DE BUREAU ET DE TRANSPORT;EQUIPEMENT
21281328;ACHAT DE MOYEN DE PROSPECTION EN MER ; MOBILIER ET MATERIEL DE BUREAU ET DE TRANSPORT;EQUIPEMENT
21281324;SERVICES DE CONSULTANT(*); PROJET D'ACQUISITION D'UN NAVIRE OCEANOGRAPHIQUE  ;EQUIPEMENT
21281327;CONSTRUCTION DU NAVIRE OCEANOGRAPHIQUE; PROJET D'ACQUISITION D'UN NAVIRE OCEANOGRAPHIQUE  ;EQUIPEMENT
21281329;"FRAIS  DE COMMISSION DU PRÊT  MPR-P34"" Front& fee"" & DU CONTRAT DE GARANTIE"; PROJET D'ACQUISITION D'UN NAVIRE OCEANOGRAPHIQUE  ;EQUIPEMENT
21281330;ASSURANCE MULTIRISQUE5COPRS DE PECHE, ZODIAC,VOL,INCENDIE); AUTRES CHARGES EXTERNES;EQUIPEMENT
21281331;HONORAIRES ET DROIT DE DOUANE; AUTRES CHARGES EXTERNES;EQUIPEMENT
21281332;FRAIS DE FAX ET DE TELEPHONE (y compris frais de licence radio); AUTRES CHARGES EXTERNES;EQUIPEMENT
21281333;LOCATION ET CHARGES LOCATIVES; AUTRES CHARGES EXTERNES;EQUIPEMENT
21281336;AFFRETEMENT (Y COMPRIS CARBURANT,VIVRE DES NAVIRES AFFRETES); AUTRES CHARGES EXTERNES;EQUIPEMENT
21281334;DOCUMENTATION; AUTRES CHARGES EXTERNES;EQUIPEMENT
21281335;TRANSPORT DE MATERIEL; AUTRES CHARGES EXTERNES;EQUIPEMENT
21281610;SALAIRE ET TRAITEMENT (Y COMPRIS AVANCEMENT ET RELASSEMENT EXERCICES ANTERIEURES); CHARGES DU PERSONNEL;EQUIPEMENT
21281620;HEURES SUPPLEMENTAIRES; CHARGES DU PERSONNEL;EQUIPEMENT
21281630;PRIMES DE GRATIFICATION   ET PRIMES DE RECETTES Y compris exercices antérieures    ; CHARGES DU PERSONNEL;EQUIPEMENT
21281631;INDEMNITES DIVERSES(Y COMPRIS AVANCEMENT ET RELASSEMENT EXERCICES ANTERIEURES); CHARGES DU PERSONNEL;EQUIPEMENT
21281644;INDEMNITES DE NOURRITURES; CHARGES DU PERSONNEL;EQUIPEMENT
21281651;PRESTATIONS FAMILIALES; CHARGES DU PERSONNEL;EQUIPEMENT
21281652;ASSURANCE MUTUELLE (Y COMPRIS AVANCEMENT ET RELASSEMENT EXERCICES ANTERIEURES); CHARGES DU PERSONNEL;EQUIPEMENT
21281653;RCAR  ET  CMR (Y COMPRIS AVANCEMENT ET RELASSEMENT EXERCICES ANTERIEURES); CHARGES DU PERSONNEL;EQUIPEMENT
21281660;HABILLEMENT ET LITERIE; CHARGES DU PERSONNEL;EQUIPEMENT
;;TOTAL PROSPECTIONS HALIEUTIQUES;EQUIPEMENT
22100100;CARBURANT;TOTAL ETUDES ET RECHERCHES SCIENTIFIQUES ;EQUIPEMENT
22100200;LOCATION DE BARQUES;TOTAL ETUDES ET RECHERCHES SCIENTIFIQUES ;EQUIPEMENT
22100300;ACHAT DE COQUILLAGES ET POISSONS;TOTAL ETUDES ET RECHERCHES SCIENTIFIQUES ;EQUIPEMENT
22100400;INDEMNITES DE DEPLACEMENT AU MAROC;TOTAL ETUDES ET RECHERCHES SCIENTIFIQUES ;EQUIPEMENT
22100500;INDEMNITES DE DEPLACEMENT A L'ETRANGER;TOTAL ETUDES ET RECHERCHES SCIENTIFIQUES ;EQUIPEMENT
22100600;FRAIS DE TRANSPORT AU MAROC ET A L'ETRANGER;TOTAL ETUDES ET RECHERCHES SCIENTIFIQUES ;EQUIPEMENT
22100800;ACHAT DE PETIT OUTILLAGE ET PETIT EQUIPEMENT;TOTAL ETUDES ET RECHERCHES SCIENTIFIQUES ;EQUIPEMENT
22100900;IMPRESSION;TOTAL ETUDES ET RECHERCHES SCIENTIFIQUES ;EQUIPEMENT
22100910;ACHAT DE PRODUITS CHIMIQUES;TOTAL ETUDES ET RECHERCHES SCIENTIFIQUES ;EQUIPEMENT
22100920;ACHAT DE VERRERIE;TOTAL ETUDES ET RECHERCHES SCIENTIFIQUES ;EQUIPEMENT
22100930;AUTRES PRODUITS DE LABORATOIRES;TOTAL ETUDES ET RECHERCHES SCIENTIFIQUES ;EQUIPEMENT
22100960;LOCATION ET CHARGES LOCATIVES;TOTAL ETUDES ET RECHERCHES SCIENTIFIQUES ;EQUIPEMENT
22100970;PROJET RECIFS ARTIFICIELS ;TOTAL ETUDES ET RECHERCHES SCIENTIFIQUES ;EQUIPEMENT
22100980;CLASSEMENT DE ZONES (FOURNITURES INSTALLATION DES STRUCTURES AQUACOLES AVEC LEUR ENTRETIEN, ESSAI D'INTERCOMPARAISON , ANALYSES ,...);TOTAL ETUDES ET RECHERCHES SCIENTIFIQUES ;EQUIPEMENT
22105104;OCCUPATION DU DOMAINE PUBLIC;TOTAL ETUDES ET RECHERCHES SCIENTIFIQUES ;EQUIPEMENT
22105106;EAU;TOTAL ETUDES ET RECHERCHES SCIENTIFIQUES ;EQUIPEMENT
22105107;ELECTRICITE;TOTAL ETUDES ET RECHERCHES SCIENTIFIQUES ;EQUIPEMENT
22200000;Brevets,marques, droits et valeurs similaires;TOTAL ETUDES ET RECHERCHES SCIENTIFIQUES ;EQUIPEMENT
23110000;ACHAT DE TERRAIN LABOS DAKHLA;TOTAL AUTRES DEPENSES D'EQUIPEMENT;EQUIPEMENT
23200000;CONSTRUCTION ,AMENAGEMENT, ETUDES TECHNIQUES D'ARCHITECTURE ET FOURNITURE DES BATIMENTS MODULAIRES;TOTAL AUTRES DEPENSES D'EQUIPEMENT;EQUIPEMENT
23230000;MISE A NIVEAU DES INFRASRUCTURES;TOTAL AUTRES DEPENSES D'EQUIPEMENT;EQUIPEMENT
23240000;CREATION D'UN CENTRE DE LA MER  A EL HOCEIMA;TOTAL AUTRES DEPENSES D'EQUIPEMENT;EQUIPEMENT
23320000;MATERIEL ET OUTILLAGE;TOTAL AUTRES DEPENSES D'EQUIPEMENT;EQUIPEMENT
23408000;MATERIEL DE TRANSPORT;TOTAL AUTRES DEPENSES D'EQUIPEMENT;EQUIPEMENT
23510000;ACHAT DE MOBILIER DE BUREAU;TOTAL AUTRES DEPENSES D'EQUIPEMENT;EQUIPEMENT
23520000;ACHAT DE MATERIEL DE BUREAU;TOTAL AUTRES DEPENSES D'EQUIPEMENT;EQUIPEMENT
23550000;ACHAT AUTRES MOBILIERS, MATERIEL DE BUREAU;TOTAL AUTRES DEPENSES D'EQUIPEMENT;EQUIPEMENT
23551000;ACHAT DE MATERIEL INFORMATIQUE;TOTAL AUTRES DEPENSES D'EQUIPEMENT;EQUIPEMENT
23552000;ACHAT DE LOGICIELS (Y compris mise en place du SIH);TOTAL AUTRES DEPENSES D'EQUIPEMENT;EQUIPEMENT
24860000;DEPOT ET CAUTIONNEMENT VERSES;TOTAL AUTRES DEPENSES D'EQUIPEMENT;EQUIPEMENT