{ "_id" : { "$oid" : "598d874f3cab8764eca1698f" }, "rib" : "111111111111", "adresse" : "LC 2 Ain Diab - Casablanca", "tel" : "0618537228", "type" : "Interne", "nom" : "Wafik mustapha", "__v" : 0 }
{ "_id" : { "$oid" : "598d87c33cab8764eca16990" }, "rib" : "222222222222", "adresse" : "Casablanca", "tel" : "0522334455", "type" : "Externe", "nom" : "IT KNOWLEDGE", "__v" : 0 }
{ "_id" : { "$oid" : "59903ba5eaa43d6e6f7bb26f" }, "rib" : "000000000000", "adresse" : "Casablanca", "tel" : "0522 44 66 78", "type" : "Externe", "nom" : "Univers Labo", "__v" : 0, "autreinfo" : null }
{ "_id" : { "$oid" : "59a15d96c786e811b1f2d7c6" }, "rib" : "5555-6666", "adresse" : "casa", "tel" : "0522443355", "type" : "Externe", "nom" : "ACAS", "__v" : 0, "autreinfo" : "" }
{ "_id" : { "$oid" : "59a5520089f2551ddabb206d" }, "rib" : "", "adresse" : "", "tel" : "", "type" : "Interne", "nom" : "PERSONNEL INRH", "__v" : 0 }
{ "_id" : { "$oid" : "59a5521189f2551ddabb206f" }, "rib" : "", "adresse" : "", "tel" : "", "type" : "Interne", "nom" : "PERSONNEL NAVIGANT", "__v" : 0 }
{ "_id" : { "$oid" : "59a5523489f2551ddabb2071" }, "rib" : "1122334455", "adresse" : "Casablanca", "tel" : "0522434354", "type" : "Externe", "nom" : "AUTO HALL", "__v" : 0 }
{ "_id" : { "$oid" : "59a5524f89f2551ddabb2073" }, "rib" : "", "adresse" : "", "tel" : "", "type" : "Interne", "nom" : "JAWAD EL ATTAR", "__v" : 0 }
{ "_id" : { "$oid" : "5a88b195f2daf35354657198" }, "rib" : "11223344", "adresse" : "Casablanca", "tel" : "0522435466", "type" : "Externe", "nom" : "VEUVE BOUKHARI", "__v" : 0 }
{ "_id" : { "$oid" : "5a88b1d7f2daf3535465719a" }, "rib" : "", "adresse" : "", "tel" : "", "type" : "Externe", "nom" : "GENOME BIOTECHNOLOGIES", "__v" : 0 }
{ "_id" : { "$oid" : "5a88b1e6f2daf3535465719c" }, "rib" : "", "adresse" : "", "tel" : "", "type" : "Externe", "nom" : "REACTING", "__v" : 0 }
{ "_id" : { "$oid" : "5a88b1fdf2daf3535465719e" }, "rib" : "", "adresse" : "", "tel" : "", "type" : "Externe", "nom" : "QUALITHRAS CONSULTING & EXPERTISE", "__v" : 0 }
{ "_id" : { "$oid" : "5a88b210f2daf353546571a0" }, "rib" : "", "adresse" : "", "tel" : "", "type" : "Externe", "nom" : "INSTITUT PASTEUR DU MAROC\t", "__v" : 0 }
{ "_id" : { "$oid" : "5a88b221f2daf353546571a2" }, "rib" : "", "adresse" : "", "tel" : "", "type" : "Externe", "nom" : "RECEVEUR DE L'ADMINISTRATION FISCALE\t", "__v" : 0 }
{ "_id" : { "$oid" : "5a88b234f2daf353546571a4" }, "rib" : "", "adresse" : "", "tel" : "", "type" : "Externe", "nom" : "GROUPEMENT STECOF-AQUALOG\t", "__v" : 0 }
{ "_id" : { "$oid" : "5a88b243f2daf353546571a6" }, "rib" : "", "adresse" : "", "tel" : "", "type" : "Externe", "nom" : "STE MOTORES ABC MARRUECOS\t", "__v" : 0 }
{ "_id" : { "$oid" : "5a88b252f2daf353546571a8" }, "rib" : "", "adresse" : "", "tel" : "", "type" : "Externe", "nom" : "MCC\t", "__v" : 0 }
{ "_id" : { "$oid" : "5a88b261f2daf353546571aa" }, "rib" : "", "adresse" : "", "tel" : "", "type" : "Externe", "nom" : "SOLVACHIM\t", "__v" : 0 }
{ "_id" : { "$oid" : "5a88b26ff2daf353546571ac" }, "rib" : "", "adresse" : "", "tel" : "", "type" : "Externe", "nom" : "FINEA\t", "__v" : 0 }
{ "_id" : { "$oid" : "5a88b33ef2daf353546571ae" }, "rib" : "", "adresse" : "", "tel" : "", "type" : "Interne", "nom" : "Mounir ITAOUI", "__v" : 0 }
{ "_id" : { "$oid" : "5a88b349f2daf353546571b0" }, "rib" : "", "adresse" : "", "tel" : "", "type" : "Interne", "nom" : "Mohamed AMRANI", "__v" : 0 }
{ "_id" : { "$oid" : "5a88b354f2daf353546571b2" }, "rib" : "", "adresse" : "", "tel" : "", "type" : "Interne", "nom" : "Abdelmalek FARAJ", "__v" : 0 }
{ "_id" : { "$oid" : "5a88b36df2daf353546571b4" }, "rib" : "", "adresse" : "", "tel" : "", "type" : "Interne", "nom" : "Mostapha AIT CHETTOU", "__v" : 0 }
{ "_id" : { "$oid" : "5a88b381f2daf353546571b6" }, "rib" : "", "adresse" : "", "tel" : "", "type" : "Interne", "nom" : "Ali AFERYAD", "__v" : 0 }
{ "_id" : { "$oid" : "5a88b38ef2daf353546571b8" }, "rib" : "", "adresse" : "", "tel" : "", "type" : "Interne", "nom" : "Zina ELMALKI", "__v" : 0 }
