{ "_id" : { "$oid" : "5995f72bc1a80c8b7de02121" }, "solde" : 90800, "totaldebit" : 0, "totalcredit" : 0.0, "rib" : "11111111111111111111111111", "agence" : "AGENCE MLY YOUSSEF", "banque" : "Trésorerie Général", "code" : "514350", "__v" : 0, "ecritures" : [ { "comptagenerale" : [  ], "annuler" : false, "numavis" : 1, "exercice" : "Exercice 2018", "dateav" : "2017-09-13", "debiteur" : "Le receveur des douanes-NADOR", "objet" : "LOCATION DE VEDETTE DE SERVITUDE POUR DEBARQUEMENT SCIENTIFIQUE EN RADE DE DAKHLA", "montant" : 90000, "montantlettre" : "UN DEUX TROIS", "dateencaissement" : "2017-09-05", "sourcebudget" : "SUBVENTION DE FONCTIONNEMENT", "datesaisie" : "22/09/2017  11:40:18", "_id" : { "$oid" : "59c4e892878506bd12802500" } }, { "comptagenerale" : [  ], "annuler" : true, "motifannul" : "erreur de saisie", "dateannul" : "22/09/2017  11:46:56", "numavis" : 1, "exercice" : "Exercice 2018", "dateav" : "2017-09-17", "debiteur" : "Le receveur des douanes-NADOR", "objet" : "VERIFICATION DE LA GCMS-QP 2010 SHIMADZU", "montant" : 78000, "montantlettre" : "UN DEUX TROIS", "dateencaissement" : "2017-09-06", "sourcebudget" : "SUBVENTION DE FONCTIONNEMENT", "datesaisie" : "22/09/2017  11:40:57", "_id" : { "$oid" : "59c4e8b9878506bd12802503" } }, { "comptagenerale" : [  ], "annuler" : true, "motifannul" : "erreur de saisie", "dateannul" : "24/09/2017  01:16:51", "numavis" : 1, "exercice" : "Exercice 2018", "dateav" : "2017-09-14", "debiteur" : "Le receveur des douanes-NADOR", "objet" : "VERIFICATION DE LA GCMS-QP 2010 SHIMADZU", "montant" : 6780, "montantlettre" : "UN DEUX TROIS", "dateencaissement" : "2017-09-05", "sourcebudget" : "SUBVENTION DE FONCTIONNEMENT", "datesaisie" : "22/09/2017  13:02:38", "_id" : { "$oid" : "59c4fbdef9fa55bdf1ea61c7" } }, { "comptagenerale" : [  ], "annuler" : false, "numavis" : 1, "exercice" : "Exercice 2018,Exercice 2018", "dateav" : "2017-09-06", "debiteur" : "SOTRANOS", "objet" : "gggggg", "montant" : 800, "montantlettre" : "UN DEUX TROIS", "dateencaissement" : "2017-09-05", "sourcebudget" : "SUBVENTION DE FONCTIONNEMENT", "datesaisie" : "24/09/2017  08:09:10", "_id" : { "$oid" : "59c75a162310ccd96eed849a" } } ], "typebudget" : "RECIFS ARTIFICIELS", "comptebancaire" : "TG 12006" }
{ "_id" : { "$oid" : "598cff770f64e06244290c28" }, "solde" : 0, "totaldebit" : 0, "totalcredit" : 0.0, "rib" : "310 780 1003121700461601 21", "agence" : "agence zerktouni", "banque" : "Trésorerie Général", "code" : "514360", "__v" : 0, "ecritures" : [  ], "typebudget" : "EQUIPEMENT", "comptebancaire" : "TG 7004616" }
{ "_id" : { "$oid" : "5995f6aec1a80c8b7de0211f" }, "solde" : 0, "totaldebit" : 0, "totalcredit" : 0.0, "rib" : "310 780 0343000406510126 00", "agence" : "AGENCE CASA PORT", "banque" : "Crédit agricole", "code" : "514140", "__v" : 0, "ecritures" : [  ], "typebudget" : "FONCTIONNEMENT", "comptebancaire" : "W 3000 40 Z 651" }
{ "_id" : { "$oid" : "5995f6d4c1a80c8b7de02120" }, "solde" : 4000, "totaldebit" : 0, "totalcredit" : 0.0, "rib" : "11111111111111111111111111", "agence" : "AGENCE ANFA", "banque" : "BMCE", "code" : "514120", "__v" : 0, "ecritures" : [ { "comptagenerale" : [  ], "annuler" : false, "numavis" : 1, "exercice" : "Exercice 2018,Exercice 2017", "dateav" : "10/19/2017", "debiteur" : "INSTITUT PASTEUR DU MAROC", "objet" : "test objet", "montant" : 4000, "montantlettre" : "UN DEUX TROIS", "dateencaissement" : "2017-10-20", "sourcebudget" : "PRESTATION DE SERVICE", "datesaisie" : "28/10/2017  23:09:31", "_id" : { "$oid" : "59f5001b2741721e89cb8890" } } ], "typebudget" : "REG EN DEVIS", "comptebancaire" : "BMCE" }
{ "_id" : { "$oid" : "5995f691c1a80c8b7de0211e" }, "solde" : 0, "totaldebit" : 0, "totalcredit" : 0.0, "rib" : "310 780 0343006936510118 00", "agence" : "AGENCE CASA PORT", "banque" : "Crédit agricole", "code" : "514110", "__v" : 0, "ecritures" : [  ], "typebudget" : "OEUVRES SOCIALES", "comptebancaire" : "W 300 693 R 651" }
{ "_id" : { "$oid" : "598cfd159adb23620370441e" }, "solde" : 0, "totaldebit" : 0, "totalcredit" : 0.0, "rib" : "310 780 1003124001251801 41", "agence" : "Agence Casa Port", "banque" : "Trésorerie Général", "code" : "514370", "__v" : 0, "ecritures" : [  ], "typebudget" : "FONCTIONNEMENT", "comptebancaire" : "TG 12518" }
{ "_id" : { "$oid" : "5a55f11f1dbd6e276a880607" }, "typebudget" : "FONCTIONNEMENT", "comptebancaire" : "1010/2018", "rib" : "1123344556677889900", "agence" : "agence port", "banque" : "BMCE", "code" : "514130", "ecritures" : [  ], "solde" : 0, "totalcredit" : 0, "totaldebit" : 0, "__v" : 0 }
{ "_id" : { "$oid" : "5a55f1afbaecc0284cbc5529" }, "typebudget" : "EQUIPEMENT", "comptebancaire" : "1111/2018", "rib" : "2233445566", "agence" : "agence port", "banque" : "Trésorerie Général", "code" : "514150", "ecritures" : [  ], "solde" : 0, "totalcredit" : 0, "totaldebit" : 0, "__v" : 0 }
